package org.mbracero.drools.rules
 
import org.mbracero.drools.vo.SampleVO
 
rule "Sample Rule"
  
when
	$vo : SampleVO( stringValue == "Learning to drool", $booleanVal : booleanValue )
 	eval( $booleanVal )
then 
    System.out.println( "First Rule" ); 
 	$vo.setStringValue("Done."); 
end